{
    "swagger": "2.0",
    "info": {
        "description": "Go 語言編程之旅: 一起用go做項目",
        "title": "Hong的秘密花園",
        "termsOfService": "https://github.com/go-programming-tour-book",
        "contact": {},
        "license": {},
        "version": "1.0"
    },
    "paths": {
        "/api/v1/articles": {
            "get": {
                "produces": [
                    "application/json"
                ],
                "summary": "獲取多個文章",
                "parameters": [
                    {
                        "maxLength": 100,
                        "type": "string",
                        "description": "文章名稱",
                        "name": "name",
                        "in": "query"
                    },
                    {
                        "enum": [
                            0,
                            1
                        ],
                        "type": "integer",
                        "default": 1,
                        "description": "狀態",
                        "name": "state",
                        "in": "query"
                    },
                    {
                        "type": "integer",
                        "description": "頁碼",
                        "name": "page",
                        "in": "query"
                    },
                    {
                        "type": "integer",
                        "description": "每頁數量",
                        "name": "page_size",
                        "in": "query"
                    }
                ],
                "responses": {
                    "200": {
                        "description": "成功",
                        "schema": {
                            "$ref": "#/definitions/model.ArticleSwagger"
                        }
                    },
                    "400": {
                        "description": "請求錯誤",
                        "schema": {
                            "$ref": "#/definitions/errcode.Error"
                        }
                    },
                    "500": {
                        "description": "內部錯誤",
                        "schema": {
                            "$ref": "#/definitions/errcode.Error"
                        }
                    }
                }
            },
            "post": {
                "produces": [
                    "application/json"
                ],
                "summary": "新增文章",
                "parameters": [
                    {
                        "maxLength": 100,
                        "minLength": 3,
                        "description": "文章名稱",
                        "name": "name",
                        "in": "body",
                        "required": true,
                        "schema": {
                            "type": "string"
                        }
                    },
                    {
                        "enum": [
                            0,
                            1
                        ],
                        "default": 1,
                        "description": "狀態",
                        "name": "state",
                        "in": "body",
                        "schema": {
                            "type": "integer"
                        }
                    },
                    {
                        "maxLength": 100,
                        "minLength": 3,
                        "description": "創建者",
                        "name": "created_by",
                        "in": "body",
                        "required": true,
                        "schema": {
                            "type": "string"
                        }
                    }
                ],
                "responses": {
                    "200": {
                        "description": "成功",
                        "schema": {
                            "$ref": "#/definitions/model.ArticleSwagger"
                        }
                    },
                    "400": {
                        "description": "請求錯誤",
                        "schema": {
                            "$ref": "#/definitions/errcode.Error"
                        }
                    },
                    "500": {
                        "description": "內部錯誤",
                        "schema": {
                            "$ref": "#/definitions/errcode.Error"
                        }
                    }
                }
            }
        },
        "/api/v1/articles/{id}": {
            "get": {
                "produces": [
                    "application/json"
                ],
                "summary": "取得指定文章",
                "parameters": [
                    {
                        "type": "integer",
                        "description": "文章ID",
                        "name": "id",
                        "in": "path",
                        "required": true
                    }
                ],
                "responses": {
                    "200": {
                        "description": "成功",
                        "schema": {
                            "$ref": "#/definitions/model.ArticleSwagger"
                        }
                    },
                    "400": {
                        "description": "請求錯誤",
                        "schema": {
                            "$ref": "#/definitions/errcode.Error"
                        }
                    },
                    "500": {
                        "description": "內部錯誤",
                        "schema": {
                            "$ref": "#/definitions/errcode.Error"
                        }
                    }
                }
            },
            "put": {
                "produces": [
                    "application/json"
                ],
                "summary": "更新文章",
                "parameters": [
                    {
                        "type": "integer",
                        "description": "文章ID",
                        "name": "id",
                        "in": "path",
                        "required": true
                    },
                    {
                        "maxLength": 100,
                        "minLength": 3,
                        "description": "文章名稱",
                        "name": "name",
                        "in": "body",
                        "schema": {
                            "type": "string"
                        }
                    },
                    {
                        "enum": [
                            0,
                            1
                        ],
                        "default": 1,
                        "description": "狀態",
                        "name": "state",
                        "in": "body",
                        "schema": {
                            "type": "integer"
                        }
                    },
                    {
                        "maxLength": 100,
                        "minLength": 3,
                        "description": "修改者",
                        "name": "modified_by",
                        "in": "body",
                        "required": true,
                        "schema": {
                            "type": "string"
                        }
                    }
                ],
                "responses": {
                    "200": {
                        "description": "成功",
                        "schema": {
                            "$ref": "#/definitions/model.ArticleSwagger"
                        }
                    },
                    "400": {
                        "description": "請求錯誤",
                        "schema": {
                            "$ref": "#/definitions/errcode.Error"
                        }
                    },
                    "500": {
                        "description": "內部錯誤",
                        "schema": {
                            "$ref": "#/definitions/errcode.Error"
                        }
                    }
                }
            },
            "delete": {
                "produces": [
                    "application/json"
                ],
                "summary": "刪除文章",
                "parameters": [
                    {
                        "type": "integer",
                        "description": "文章ID",
                        "name": "id",
                        "in": "path",
                        "required": true
                    }
                ],
                "responses": {
                    "200": {
                        "description": "成功",
                        "schema": {
                            "type": "string"
                        }
                    },
                    "400": {
                        "description": "請求錯誤",
                        "schema": {
                            "$ref": "#/definitions/errcode.Error"
                        }
                    },
                    "500": {
                        "description": "內部錯誤",
                        "schema": {
                            "$ref": "#/definitions/errcode.Error"
                        }
                    }
                }
            }
        },
        "/api/v1/tags": {
            "get": {
                "produces": [
                    "application/json"
                ],
                "summary": "獲取多個標籤",
                "parameters": [
                    {
                        "maxLength": 100,
                        "type": "string",
                        "description": "標籤名稱",
                        "name": "name",
                        "in": "query"
                    },
                    {
                        "enum": [
                            0,
                            1
                        ],
                        "type": "integer",
                        "default": 1,
                        "description": "狀態",
                        "name": "state",
                        "in": "query"
                    },
                    {
                        "type": "integer",
                        "description": "頁碼",
                        "name": "page",
                        "in": "query"
                    },
                    {
                        "type": "integer",
                        "description": "每頁數量",
                        "name": "page_size",
                        "in": "query"
                    }
                ],
                "responses": {
                    "200": {
                        "description": "成功",
                        "schema": {
                            "$ref": "#/definitions/model.TagSwagger"
                        }
                    },
                    "400": {
                        "description": "請求錯誤",
                        "schema": {
                            "$ref": "#/definitions/errcode.Error"
                        }
                    },
                    "500": {
                        "description": "內部錯誤",
                        "schema": {
                            "$ref": "#/definitions/errcode.Error"
                        }
                    }
                }
            },
            "post": {
                "produces": [
                    "application/json"
                ],
                "summary": "新增標籤",
                "parameters": [
                    {
                        "maxLength": 100,
                        "minLength": 3,
                        "description": "標籤名稱",
                        "name": "name",
                        "in": "body",
                        "required": true,
                        "schema": {
                            "type": "string"
                        }
                    },
                    {
                        "enum": [
                            0,
                            1
                        ],
                        "default": 1,
                        "description": "狀態",
                        "name": "state",
                        "in": "body",
                        "schema": {
                            "type": "integer"
                        }
                    },
                    {
                        "maxLength": 100,
                        "minLength": 3,
                        "description": "創建者",
                        "name": "created_by",
                        "in": "body",
                        "required": true,
                        "schema": {
                            "type": "string"
                        }
                    }
                ],
                "responses": {
                    "200": {
                        "description": "成功",
                        "schema": {
                            "$ref": "#/definitions/model.TagSwagger"
                        }
                    },
                    "400": {
                        "description": "請求錯誤",
                        "schema": {
                            "$ref": "#/definitions/errcode.Error"
                        }
                    },
                    "500": {
                        "description": "內部錯誤",
                        "schema": {
                            "$ref": "#/definitions/errcode.Error"
                        }
                    }
                }
            }
        },
        "/api/v1/tags/{id}": {
            "put": {
                "produces": [
                    "application/json"
                ],
                "summary": "更新標籤",
                "parameters": [
                    {
                        "type": "integer",
                        "description": "標籤ID",
                        "name": "id",
                        "in": "path",
                        "required": true
                    },
                    {
                        "maxLength": 100,
                        "minLength": 3,
                        "description": "標籤名稱",
                        "name": "name",
                        "in": "body",
                        "schema": {
                            "type": "string"
                        }
                    },
                    {
                        "enum": [
                            0,
                            1
                        ],
                        "default": 1,
                        "description": "狀態",
                        "name": "state",
                        "in": "body",
                        "schema": {
                            "type": "integer"
                        }
                    },
                    {
                        "maxLength": 100,
                        "minLength": 3,
                        "description": "修改者",
                        "name": "modified_by",
                        "in": "body",
                        "required": true,
                        "schema": {
                            "type": "string"
                        }
                    }
                ],
                "responses": {
                    "200": {
                        "description": "成功",
                        "schema": {
                            "$ref": "#/definitions/model.TagSwagger"
                        }
                    },
                    "400": {
                        "description": "請求錯誤",
                        "schema": {
                            "$ref": "#/definitions/errcode.Error"
                        }
                    },
                    "500": {
                        "description": "內部錯誤",
                        "schema": {
                            "$ref": "#/definitions/errcode.Error"
                        }
                    }
                }
            },
            "delete": {
                "produces": [
                    "application/json"
                ],
                "summary": "刪除標籤",
                "parameters": [
                    {
                        "type": "integer",
                        "description": "標籤ID",
                        "name": "id",
                        "in": "path",
                        "required": true
                    }
                ],
                "responses": {
                    "200": {
                        "description": "成功",
                        "schema": {
                            "type": "string"
                        }
                    },
                    "400": {
                        "description": "請求錯誤",
                        "schema": {
                            "$ref": "#/definitions/errcode.Error"
                        }
                    },
                    "500": {
                        "description": "內部錯誤",
                        "schema": {
                            "$ref": "#/definitions/errcode.Error"
                        }
                    }
                }
            }
        }
    },
    "definitions": {
        "app.Pager": {
            "type": "object",
            "properties": {
                "page": {
                    "type": "integer"
                },
                "pagesize": {
                    "type": "integer"
                },
                "total_rows": {
                    "type": "integer"
                }
            }
        },
        "errcode.Error": {
            "type": "object",
            "properties": {
                "code": {
                    "type": "integer"
                },
                "details": {
                    "type": "array",
                    "items": {
                        "type": "string"
                    }
                },
                "msg": {
                    "type": "string"
                }
            }
        },
        "model.Article": {
            "type": "object",
            "properties": {
                "content": {
                    "type": "string"
                },
                "cover_image_url": {
                    "type": "string"
                },
                "created_by": {
                    "type": "string"
                },
                "created_on": {
                    "type": "integer"
                },
                "deleted_on": {
                    "type": "integer"
                },
                "desc": {
                    "type": "string"
                },
                "id": {
                    "type": "integer"
                },
                "is_del": {
                    "type": "integer"
                },
                "modified_by": {
                    "type": "string"
                },
                "modified_on": {
                    "type": "integer"
                },
                "state": {
                    "type": "integer"
                },
                "title": {
                    "type": "string"
                }
            }
        },
        "model.ArticleSwagger": {
            "type": "object",
            "properties": {
                "list": {
                    "type": "array",
                    "items": {
                        "$ref": "#/definitions/model.Article"
                    }
                },
                "pager": {
                    "type": "object",
                    "$ref": "#/definitions/app.Pager"
                }
            }
        },
        "model.Tag": {
            "type": "object",
            "properties": {
                "created_by": {
                    "type": "string"
                },
                "created_on": {
                    "type": "integer"
                },
                "deleted_on": {
                    "type": "integer"
                },
                "id": {
                    "type": "integer"
                },
                "is_del": {
                    "type": "integer"
                },
                "modified_by": {
                    "type": "string"
                },
                "modified_on": {
                    "type": "integer"
                },
                "name": {
                    "type": "string"
                },
                "state": {
                    "type": "integer"
                }
            }
        },
        "model.TagSwagger": {
            "type": "object",
            "properties": {
                "list": {
                    "type": "array",
                    "items": {
                        "$ref": "#/definitions/model.Tag"
                    }
                },
                "pager": {
                    "type": "object",
                    "$ref": "#/definitions/app.Pager"
                }
            }
        }
    }
}